"nbr_sains";"place_name";"duree_moyenne"
28;Place nr 84;"13:57:38.571429"
22;Place nr 38;"09:42:00"
18;Place nr 46;"10:36:46.666667"
25;Rik's Local grocery shop;"11:53:14.4"
21;Place nr 12;"10:30:02.857143"
29;Place nr 32;"12:48:39.310345"
25;Place nr 18;"09:48:09.6"
23;Place nr 76;"13:52:05.217391"
21;Place nr 79;"12:09:28.571429"
25;Place nr 5;"12:13:43.2"
20;Place nr 59;"13:06:36"
32;Place nr 27;"12:19:35.625"
24;Place nr 37;"12:49:57.5"
29;Place nr 95;"11:22:51.724138"
25;Place nr 85;"11:39:21.6"
20;Place nr 89;"10:34:51"
25;Place nr 66;"11:36:48"
19;Place nr 48;"11:32:15.789474"
31;Place nr 67;"11:45:15.483871"
22;Place nr 61;"13:34:49.090909"
17;Place nr 6;"14:22:38.823529"
29;Place nr 77;"14:49:16.551724"
17;Place nr 41;"10:00:14.117647"
27;Place nr 52;"10:56:33.333333"
20;Place nr 50;"13:48:30"
20;Place nr 81;"13:32:36"
21;Place nr 51;"11:50:00"
24;Place nr 92;"11:35:02.5"
32;Place nr 98;"10:52:28.125"
21;Place nr 47;"12:42:00"
27;Place nr 56;"13:55:04.444444"
24;Place nr 26;"10:47:52.5"
23;Place nr 3;"10:25:33.913043"
24;Place nr 21;"11:06:45"
24;Place nr 17;"14:18:42.5"
27;Place nr 35;"09:40:44.444444"
21;Place nr 83;"13:29:34.285714"
30;Place nr 15;"13:38:34"
25;Place nr 33;"13:10:52.8"
25;Place nr 88;"13:32:24"
18;Place nr 54;"12:31:33.333333"
20;Place nr 73;"11:01:48"
26;Place nr 55;"11:39:30"
26;Place nr 69;"13:32:36.923077"
21;Place nr 70;"09:50:57.142857"
21;Place nr 16;"12:24:25.714286"
20;Place nr 8;"10:28:12"
23;Place nr 49;"12:27:49.565217"
12;Place nr 63;"08:13:25"
21;Place nr 2;"10:27:11.428571"
29;Place nr 19;"11:52:10.344828"
29;Place nr 99;"12:26:22.758621"
26;Place nr 24;"12:14:46.153846"
24;Place nr 71;"12:01:05"
21;Place nr 10;"12:44:34.285714"
21;Place nr 91;"12:34:40"
19;Place nr 36;"13:55:50.526316"
23;Place nr 97;"10:21:28.695652"
23;Place nr 64;"10:04:02.608696"
28;Place nr 87;"12:11:21.428571"
20;Place nr 100;"10:07:36"
26;Place nr 90;"12:32:32.307692"
30;Place nr 20;"12:22:18"
17;Place nr 29;"12:45:35.294118"
18;Place nr 42;"13:09:43.333333"
29;Place nr 74;"11:27:41.37931"
20;Place nr 58;"14:16:42"
33;Place nr 25;"12:54:58.181818"
25;Place nr 40;"11:47:50.4"
28;Place nr 86;"12:33:15"
28;Place nr 44;"09:27:21.428571"
33;Place nr 9;"12:40:47.272727"
21;Place nr 78;"12:35:25.714286"
30;Place nr 72;"12:21:54"
20;Place nr 80;"13:13:21"
26;Place nr 75;"10:34:46.153846"
27;Place nr 1;"12:55:42.222222"
30;Place nr 13;"12:03:22"
16;Place nr 39;"11:01:37.5"
25;Place nr 68;"10:41:43.2"
25;Place nr 43;"13:11:28.8"
23;Place nr 82;"12:08:52.173913"
15;Place nr 62;"09:23:12"
27;Place nr 11;"12:39:46.666667"
24;Place nr 93;"13:00:30"
23;Place nr 28;"12:49:23.478261"
22;Place nr 30;"08:40:57.272727"
29;Place nr 23;"12:17:10.344828"
25;Place nr 94;"13:50:26.4"
20;Place nr 34;"11:38:36"
23;Place nr 22;"15:49:13.043478"
16;Place nr 65;"10:38:03.75"
35;Place nr 60;"11:05:32.571429"
21;Place nr 4;"12:53:54.285714"
27;Place nr 14;"12:40:28.888889"
19;Place nr 96;"10:36:44.210526"
30;Place nr 7;"12:29:44"
27;Place nr 45;"12:41:13.333333"
26;Place nr 31;"10:55:00"
21;Place nr 57;"10:37:20"
28;Place nr 53;"10:22:17.142857"
