"person_id";"person_name"
64;Adriel Castillo
113;Savanna Zavala
145;Lesly Wise
249;Giovanni Fisher
296;Caitlyn Hodges
296;Caitlyn Hodges
345;Miracle Weaver
365;Damien Underwood
373;Dario Greene
414;Justin Schroeder
419;Declan Goodman
465;Genevieve Cannon
