person_id;person_name;health_status;confirmed_status_date
1;Landyn Greer;Healthy;29/09/2020 08:15
2;Hazel Kirby;Sick;08/10/2020 18:33
3;Lindsay Melton;Healthy;13/09/2020 17:52
4;Taylor Luna;Sick;18/09/2020 01:26
5;Brendon Bentley;Healthy;08/10/2020 12:56
6;Johnathan Hatfield;Sick;18/09/2020 16:21
7;Moshe Sanders;Sick;12/10/2020 20:50
8;Jesse Becker;Healthy;14/09/2020 00:35
9;Benjamin Browning;Sick;23/09/2020 18:51
10;Briley Joseph;Healthy;25/09/2020 01:04
11;Edwin Stein;Sick;27/09/2020 21:55
12;Saniyah Fuller;Healthy;20/09/2020 06:33
13;Viviana Holder;Sick;10/10/2020 01:17
14;Baylee Leblanc;Healthy;25/09/2020 19:35
15;Payton Kent;Sick;16/09/2020 13:40
16;Brooklynn Huynh;Healthy;12/10/2020 00:27
17;Timothy Norton;Healthy;27/09/2020 01:38
18;Madison Odonnell;Healthy;14/09/2020 07:49
19;Juliana Wade;Sick;25/09/2020 09:36
20;Erika Daniels;Healthy;05/10/2020 15:11
21;Leonidas Rodriguez;Healthy;23/09/2020 14:57
22;Ronan Cameron;Sick;26/09/2020 19:36
23;Rocco Chase;Sick;27/09/2020 04:39
24;Alexandria Kerr;Sick;27/09/2020 17:52
25;Justine Shepard;Sick;05/10/2020 05:41
26;Semaj Baldwin;Healthy;23/09/2020 13:18
27;Darian Bowers;Sick;02/10/2020 05:24
28;Shamar Stone;Sick;15/09/2020 03:33
29;Maurice Pruitt;Sick;15/09/2020 02:40
30;Jaylen Montes;Healthy;24/09/2020 18:44
31;Aditya Huff;Healthy;07/10/2020 17:04
32;Aubrie Humphrey;Sick;19/09/2020 00:10
33;Enzo Eaton;Sick;24/09/2020 03:23
34;Jovan Hill;Healthy;15/09/2020 06:28
35;Payton Byrd;Sick;18/09/2020 04:43
36;Ansley Briggs;Sick;03/10/2020 23:24
37;Mia Archer;Sick;08/10/2020 13:22
38;Francisco Harvey;Sick;06/10/2020 09:57
39;Hadley Fitzgerald;Sick;20/09/2020 11:22
40;Ava Chambers;Sick;11/10/2020 18:48
41;Madeline Salazar;Sick;26/09/2020 22:20
42;Korbin Castillo;Sick;24/09/2020 14:47
43;Charity Gill;Healthy;27/09/2020 10:48
44;Devin Bishop;Sick;02/10/2020 07:15
45;Clayton Ochoa;Healthy;21/09/2020 21:03
46;Colton Carey;Healthy;08/10/2020 22:04
47;Ashly Ashley;Sick;06/10/2020 08:29
48;Kael Pierce;Healthy;13/09/2020 18:39
49;Karlie Grimes;Healthy;17/09/2020 03:28
50;Payton Garner;Sick;17/09/2020 17:08
51;Dahlia Dawson;Sick;18/09/2020 06:28
52;Raegan Wilcox;Sick;01/10/2020 00:17
53;Tanya Lawson;Healthy;13/09/2020 07:35
54;Parker Thornton;Sick;27/09/2020 05:34
55;Alessandra Mcguire;Sick;10/10/2020 04:57
56;Allan Mosley;Sick;13/09/2020 19:37
57;Stephany Vazquez;Healthy;30/09/2020 23:59
58;Zavier Galloway;Healthy;03/10/2020 10:36
59;Ellie Valentine;Healthy;18/09/2020 06:02
60;Julien Mcguire;Sick;16/09/2020 05:48
61;Waylon Bray;Healthy;26/09/2020 21:11
62;Sasha Wheeler;Sick;05/10/2020 23:12
63;Derrick Levine;Healthy;27/09/2020 04:38
64;Adriel Castillo;Sick;06/10/2020 21:51
65;Teresa Frazier;Healthy;27/09/2020 19:01
66;Tucker Cardenas;Sick;17/09/2020 04:59
67;Davion Sosa;Healthy;06/10/2020 23:39
68;Ellie Montes;Healthy;22/09/2020 08:09
69;Jayson Villarreal;Healthy;06/10/2020 22:29
70;Jaydon Ho;Sick;03/10/2020 04:21
71;Averi Doyle;Sick;03/10/2020 15:28
72;Baron Collins;Sick;04/10/2020 01:23
73;Mauricio Weeks;Sick;17/09/2020 09:48
74;Madden Foster;Healthy;11/10/2020 21:50
75;Cody Carlson;Healthy;18/09/2020 03:24
76;Jaylynn Holder;Sick;24/09/2020 07:42
77;Kendall Hinton;Sick;10/10/2020 16:10
78;Anabella Schroeder;Sick;09/10/2020 06:59
79;Braden Riddle;Sick;26/09/2020 03:50
80;Jaxson Holt;Sick;23/09/2020 16:57
81;Victor Stevenson;Healthy;03/10/2020 16:47
82;Tripp Melendez;Healthy;24/09/2020 10:07
83;Cheyenne Landry;Healthy;21/09/2020 14:07
84;Amiyah Brewer;Sick;10/10/2020 04:56
85;Rigoberto Rose;Sick;21/09/2020 15:10
86;Jamya Walls;Healthy;09/10/2020 05:22
87;Karlee Trujillo;Sick;18/09/2020 18:50
88;Zion Farrell;Sick;29/09/2020 02:28
89;Mckenna Dixon;Healthy;02/10/2020 11:52
90;Stella Riley;Sick;14/09/2020 02:45
91;Kasey Ewing;Sick;13/09/2020 09:04
92;Ross Long;Sick;27/09/2020 09:02
93;Fernanda Blanchard;Sick;26/09/2020 17:14
94;Aria Delacruz;Healthy;24/09/2020 03:23
95;Jerome Crosby;Healthy;10/10/2020 03:20
96;Tucker Delgado;Healthy;07/10/2020 23:29
97;Salma Wells;Sick;30/09/2020 17:13
98;Camryn Morris;Healthy;06/10/2020 10:58
99;Yareli Stout;Sick;23/09/2020 07:38
100;Kenyon Mullen;Healthy;30/09/2020 22:30
101;Orlando Donovan;Healthy;08/10/2020 15:42
102;Max Moody;Healthy;04/10/2020 03:25
103;Bernard Ochoa;Healthy;19/09/2020 04:47
104;Jayden Hubbard;Healthy;03/10/2020 00:38
105;Melina Serrano;Healthy;11/10/2020 05:42
106;Simon Bautista;Sick;18/09/2020 03:38
107;Kayden Ashley;Healthy;22/09/2020 12:35
108;Hadassah Fry;Sick;14/09/2020 02:13
109;Angie David;Healthy;25/09/2020 10:18
110;Kayleigh Davies;Healthy;12/10/2020 00:56
111;Averie Owen;Healthy;18/09/2020 02:23
112;Paige Burton;Sick;06/10/2020 16:35
113;Savanna Zavala;Healthy;05/10/2020 14:43
114;Denisse Mcintyre;Sick;02/10/2020 15:22
115;Anabella Watkins;Healthy;21/09/2020 01:31
116;Jase Greer;Sick;26/09/2020 01:19
117;Iyana Copeland;Healthy;02/10/2020 01:02
118;Ben Mejia;Sick;01/10/2020 16:16
119;Lawrence Dennis;Sick;03/10/2020 04:00
120;Marlie Dunlap;Sick;09/10/2020 04:08
121;Adalynn Haas;Sick;26/09/2020 17:39
122;Eliana Keith;Healthy;20/09/2020 16:50
123;Viviana Glass;Sick;05/10/2020 06:18
124;Tia Mcfarland;Healthy;12/10/2020 02:35
125;Aria Church;Sick;27/09/2020 22:08
126;Dominique Ball;Sick;02/10/2020 10:58
127;Theodore Mueller;Sick;28/09/2020 23:23
128;Deven Hays;Healthy;12/10/2020 10:47
129;Sidney Marsh;Healthy;22/09/2020 17:36
130;Jakobe Hoffman;Sick;27/09/2020 09:36
131;Duncan Garcia;Healthy;26/09/2020 17:21
132;Alayna Greene;Sick;10/10/2020 01:50
133;Darius Ellis;Sick;06/10/2020 05:34
134;Perla Mayer;Healthy;12/10/2020 09:48
135;Reynaldo Kramer;Healthy;20/09/2020 13:00
136;Alissa Ryan;Sick;29/09/2020 14:10
137;Jefferson Martinez;Healthy;28/09/2020 04:46
138;Axel Dominguez;Sick;04/10/2020 14:39
139;Issac Stafford;Healthy;23/09/2020 18:28
140;Konner Abbott;Sick;24/09/2020 20:03
141;Jenny Mccann;Sick;10/10/2020 20:16
142;Tyrell Ford;Sick;24/09/2020 19:15
143;Hillary Fox;Healthy;09/10/2020 03:08
144;Kason Pena;Healthy;26/09/2020 08:36
145;Lesly Wise;Sick;15/09/2020 19:43
146;Gabriel Cox;Healthy;23/09/2020 13:31
147;Tristin Richardson;Healthy;03/10/2020 21:30
148;Cassie Lloyd;Sick;07/10/2020 19:36
149;Leonardo Moreno;Healthy;14/09/2020 04:11
150;Gracelyn Proctor;Sick;25/09/2020 10:27
151;Roselyn Huynh;Sick;13/09/2020 15:57
152;Jayleen Stevenson;Sick;17/09/2020 08:30
153;Heather Buck;Healthy;18/09/2020 12:55
154;Colt Haney;Sick;19/09/2020 21:55
155;Paxton Sandoval;Sick;21/09/2020 21:42
156;Raul Reilly;Healthy;14/09/2020 00:57
157;Ansley Brady;Sick;24/09/2020 12:20
158;Tessa Dunn;Sick;19/09/2020 02:22
159;Harry King;Sick;16/09/2020 20:21
160;Aldo Chavez;Healthy;17/09/2020 11:14
161;Sonia Lewis;Sick;27/09/2020 06:54
162;Grady Pugh;Sick;19/09/2020 17:04
163;Rylee Warren;Healthy;27/09/2020 15:44
164;Reyna Gray;Sick;22/09/2020 10:17
165;Rose Tyler;Healthy;20/09/2020 22:00
166;Jeffrey Whitney;Healthy;30/09/2020 20:18
167;Connor Haney;Healthy;23/09/2020 04:46
168;Eileen King;Sick;12/10/2020 04:58
169;Talia Stark;Healthy;03/10/2020 18:20
170;Delilah Huerta;Healthy;06/10/2020 12:22
171;Aiden Kim;Healthy;30/09/2020 23:49
172;Gary Skinner;Healthy;29/09/2020 22:02
173;Madisyn Ramos;Healthy;20/09/2020 19:21
174;Lana Barrett;Healthy;03/10/2020 19:55
175;Nathanial Welch;Healthy;10/10/2020 18:47
176;Eric Clark;Healthy;14/09/2020 14:13
177;Rose Roy;Healthy;25/09/2020 19:25
178;Eden Cross;Healthy;16/09/2020 06:40
179;Jasmin Odonnell;Healthy;13/09/2020 22:55
180;Jayce Hurst;Sick;11/10/2020 11:45
181;Payton Duke;Healthy;20/09/2020 07:11
182;Malcolm Hoffman;Healthy;23/09/2020 18:10
183;Finley Humphrey;Sick;03/10/2020 08:59
184;Guadalupe Knight;Sick;11/10/2020 13:20
185;Dulce Moss;Healthy;22/09/2020 09:12
186;Imani Abbott;Sick;05/10/2020 04:04
187;Jaidyn Avila;Healthy;20/09/2020 09:35
188;Milo Mack;Healthy;02/10/2020 18:09
189;Lily Bernard;Healthy;08/10/2020 17:09
190;Angie Krueger;Sick;07/10/2020 07:30
191;Cody Juarez;Sick;11/10/2020 12:09
192;Harley Friedman;Sick;15/09/2020 20:08
193;Lana Arellano;Sick;20/09/2020 21:54
194;Omari Cain;Sick;12/10/2020 03:35
195;Charlie Wallace;Sick;08/10/2020 11:54
196;Abraham Petersen;Sick;14/09/2020 15:08
197;Tate Cannon;Sick;06/10/2020 03:19
198;Kali Leonard;Healthy;03/10/2020 19:38
199;Izabelle Hays;Sick;13/09/2020 06:37
200;Rocco Mendez;Healthy;24/09/2020 04:09
201;Ashleigh Cooke;Sick;01/10/2020 11:18
202;Max David;Healthy;22/09/2020 00:06
203;Gisselle Mcintosh;Sick;09/10/2020 17:36
204;Connor Strong;Sick;27/09/2020 21:07
205;Paisley Brock;Sick;08/10/2020 00:09
206;Emery Baldwin;Healthy;21/09/2020 19:04
207;Anahi Esparza;Healthy;28/09/2020 19:43
208;Johnathan Gomez;Healthy;01/10/2020 18:23
209;Sariah Burnett;Sick;08/10/2020 21:25
210;Katherine Rush;Sick;21/09/2020 23:22
211;Kennedi Terrell;Healthy;27/09/2020 08:22
212;Denise Solis;Healthy;30/09/2020 23:52
213;Zoe Hooper;Healthy;22/09/2020 08:19
214;Mallory Monroe;Healthy;06/10/2020 12:21
215;Elvis Patrick;Healthy;20/09/2020 07:51
216;Antonio Tapia;Healthy;30/09/2020 19:35
217;Jenna Shields;Healthy;24/09/2020 13:52
218;Jaylon Jordan;Sick;29/09/2020 14:35
219;Riya Mayo;Sick;20/09/2020 05:41
220;Luz Frazier;Healthy;18/09/2020 19:18
221;Eric Robertson;Sick;09/10/2020 17:36
222;Niko Vazquez;Sick;09/10/2020 09:19
223;Marisa Parsons;Healthy;29/09/2020 03:00
224;Jazmine Petty;Healthy;24/09/2020 14:33
225;Mareli Pope;Healthy;11/10/2020 05:15
226;Corinne Coleman;Sick;25/09/2020 11:40
227;Niko Wells;Healthy;28/09/2020 04:39
228;Gordon Bean;Healthy;07/10/2020 17:42
229;Destiney Harper;Healthy;13/09/2020 20:35
230;Kade Acosta;Healthy;30/09/2020 07:49
231;Salvador Curtis;Sick;03/10/2020 14:55
232;Darrell Farrell;Healthy;04/10/2020 11:32
233;Keenan Gregory;Sick;30/09/2020 00:35
234;Joyce Schaefer;Healthy;06/10/2020 09:28
235;Kendra Fitzpatrick;Healthy;24/09/2020 10:53
236;Holly Ritter;Healthy;30/09/2020 22:18
237;Avery Tanner;Sick;25/09/2020 02:12
238;Zack Simon;Healthy;17/09/2020 16:57
239;Moshe Maynard;Healthy;03/10/2020 10:23
240;Jimmy Wilkins;Sick;11/10/2020 14:41
241;Paige Richards;Sick;07/10/2020 06:35
242;Faith Ellis;Healthy;16/09/2020 22:59
243;Brooklynn Gentry;Healthy;09/10/2020 17:25
244;Miles Boyd;Healthy;09/10/2020 17:19
245;Remington Kemp;Healthy;30/09/2020 10:15
246;Mayra Terry;Sick;21/09/2020 12:38
247;Holly Nguyen;Healthy;01/10/2020 17:08
248;Karly Mooney;Sick;13/09/2020 21:14
249;Giovanni Fisher;Healthy;12/10/2020 16:16
250;Ryder Moyer;Healthy;12/10/2020 05:10
251;Miranda Mcneil;Sick;07/10/2020 06:36
252;Wyatt Mcconnell;Healthy;19/09/2020 01:55
253;Nina Khan;Sick;28/09/2020 20:14
254;Alisa Maxwell;Healthy;26/09/2020 04:21
255;Semaj Roach;Healthy;06/10/2020 19:30
256;Andreas Contreras;Sick;30/09/2020 03:17
257;Katrina Wood;Sick;11/10/2020 22:11
258;Willie Hoover;Healthy;30/09/2020 22:13
259;Tatiana Leblanc;Sick;28/09/2020 16:21
260;Nicole Blake;Sick;06/10/2020 10:42
261;Gary Ritter;Sick;06/10/2020 06:05
262;Jaylin Ayers;Sick;25/09/2020 15:46
263;June Pope;Healthy;11/10/2020 19:27
264;Demarcus Howe;Sick;26/09/2020 00:58
265;Dylan Harper;Healthy;13/09/2020 11:40
266;Bryant Nicholson;Sick;20/09/2020 11:03
267;Agustin Savage;Sick;10/10/2020 15:15
268;Judah Johnston;Healthy;08/10/2020 01:29
269;Molly Hinton;Sick;12/10/2020 15:46
270;Kadyn Schneider;Healthy;26/09/2020 08:22
271;Lainey Meyer;Sick;15/09/2020 10:52
272;Darnell Mayer;Healthy;15/09/2020 16:03
273;Preston Marshall;Sick;20/09/2020 16:45
274;Elsie Cochran;Healthy;07/10/2020 21:37
275;Demarion Delacruz;Sick;07/10/2020 03:10
276;Juliana Doyle;Healthy;18/09/2020 18:14
277;Alejandra Richards;Sick;10/10/2020 08:03
278;Dashawn Bean;Sick;06/10/2020 04:36
279;Shiloh Byrd;Sick;26/09/2020 10:14
280;Nicolas Miles;Sick;24/09/2020 04:02
281;Kaylen Robles;Sick;14/09/2020 10:53
282;Alessandro Cummings;Healthy;04/10/2020 20:16
283;Francisco Norton;Healthy;26/09/2020 09:49
284;Alberto Haynes;Healthy;06/10/2020 09:06
285;Sienna Harper;Healthy;19/09/2020 06:25
286;Deon Estes;Sick;25/09/2020 06:10
287;Lukas Boyd;Healthy;25/09/2020 13:14
288;Blake Hawkins;Sick;20/09/2020 09:06
289;Darryl Johnston;Sick;01/10/2020 06:00
290;Vincent Lindsey;Healthy;19/09/2020 17:50
291;Winston Cabrera;Sick;30/09/2020 20:21
292;Annabelle Cooley;Healthy;06/10/2020 03:37
293;Remington Banks;Sick;19/09/2020 01:01
294;Trystan Flores;Sick;26/09/2020 14:37
295;Rachel Valentine;Sick;13/09/2020 14:22
296;Caitlyn Hodges;Sick;08/10/2020 01:14
297;Madisyn Bryant;Sick;24/09/2020 07:39
298;Rachel Salas;Sick;20/09/2020 14:22
299;Johanna Cantu;Sick;23/09/2020 03:12
300;Nicolas Ferguson;Sick;24/09/2020 22:41
301;Quinten Trevino;Healthy;23/09/2020 17:22
302;Francisco Vance;Healthy;12/10/2020 06:33
303;Monserrat Bullock;Healthy;15/09/2020 04:31
304;Reagan Petty;Sick;12/10/2020 01:03
305;Kayleigh May;Sick;23/09/2020 04:30
306;Braiden Jenkins;Sick;11/10/2020 23:54
307;Grady Cooley;Sick;09/10/2020 16:05
308;Rihanna Bauer;Healthy;22/09/2020 10:12
309;Jayden Pennington;Sick;09/10/2020 00:21
310;Perla Owens;Sick;09/10/2020 12:27
311;Finnegan Velazquez;Sick;06/10/2020 01:25
312;Layla Stewart;Healthy;24/09/2020 00:29
313;Everett Chapman;Sick;14/09/2020 01:13
314;Karli Hahn;Sick;23/09/2020 22:33
315;Blake Robbins;Sick;10/10/2020 15:29
316;Lacey Dixon;Sick;16/09/2020 09:22
317;Leandro Frederick;Healthy;29/09/2020 04:04
318;Alessandro Carey;Sick;30/09/2020 10:41
319;Mario Mcpherson;Healthy;18/09/2020 13:10
320;Mohammad Mahoney;Healthy;12/10/2020 07:16
321;Dylan Kelley;Sick;02/10/2020 20:47
322;Jabari Mueller;Healthy;16/09/2020 21:03
323;Marvin Costa;Healthy;10/10/2020 01:28
324;Abbigail Perry;Sick;30/09/2020 21:50
325;Kingston Oneal;Healthy;25/09/2020 17:43
326;Braydon Ramsey;Sick;01/10/2020 19:24
327;Addisyn Liu;Healthy;13/09/2020 13:16
328;Jenny Rogers;Healthy;16/09/2020 07:30
329;Makhi Coleman;Sick;11/10/2020 09:06
330;Layla Mendez;Sick;22/09/2020 17:00
331;Pranav Cobb;Sick;18/09/2020 05:36
332;Abel Arnold;Sick;18/09/2020 16:40
333;Kallie Good;Sick;12/10/2020 10:34
334;Elsie Rowland;Healthy;28/09/2020 22:41
335;Hazel Stuart;Sick;04/10/2020 18:03
336;Zander Gaines;Healthy;06/10/2020 04:25
337;Joseph Lam;Sick;13/09/2020 10:23
338;Annie Cordova;Healthy;09/10/2020 20:52
339;Arianna Lowery;Sick;13/09/2020 02:01
340;Chance Robertson;Healthy;04/10/2020 06:31
341;Antwan Bruce;Sick;21/09/2020 06:15
342;Clayton Woods;Sick;20/09/2020 08:54
343;Sergio Bryan;Healthy;03/10/2020 13:34
344;Chaz Blake;Sick;22/09/2020 18:05
345;Miracle Weaver;Healthy;21/09/2020 19:02
346;Kayden Gilbert;Healthy;01/10/2020 18:02
347;Ada Sims;Sick;20/09/2020 13:20
348;Kenny Sanchez;Sick;22/09/2020 21:48
349;Brenton Daniels;Healthy;03/10/2020 19:02
350;Cierra Villanueva;Sick;06/10/2020 06:22
351;Jakobe Krause;Healthy;07/10/2020 23:43
352;Azaria Gaines;Healthy;04/10/2020 21:24
353;Teagan Snyder;Healthy;21/09/2020 08:44
354;Maddison Hutchinson;Healthy;01/10/2020 19:53
355;Warren Yates;Healthy;02/10/2020 19:23
356;Ross Osborne;Healthy;09/10/2020 23:32
357;Josue Clements;Healthy;17/09/2020 18:03
358;Genevieve Murphy;Sick;24/09/2020 15:07
359;Kaylee Hudson;Sick;04/10/2020 05:44
360;Guadalupe Snow;Sick;03/10/2020 02:24
361;Augustus Zhang;Sick;13/09/2020 10:24
362;Kelsey Mcintosh;Healthy;06/10/2020 00:34
363;Mireya Crane;Sick;21/09/2020 00:55
364;Lucille Mahoney;Healthy;17/09/2020 08:41
365;Damien Underwood;Sick;08/10/2020 20:40
366;Kadence Mckee;Sick;02/10/2020 15:30
367;Davis Riddle;Sick;09/10/2020 18:39
368;Gaige Matthews;Healthy;08/10/2020 12:05
369;Jimena Sampson;Sick;12/10/2020 05:28
370;Jewel Simon;Sick;02/10/2020 09:47
371;Alyvia Kelley;Sick;23/09/2020 16:15
372;Briley Leonard;Sick;09/10/2020 18:30
373;Dario Greene;Healthy;19/09/2020 19:45
374;Natalia Massey;Healthy;21/09/2020 06:25
375;Samir Scott;Sick;02/10/2020 04:49
376;Phillip Forbes;Sick;28/09/2020 22:40
377;Isla Mccullough;Sick;14/09/2020 01:01
378;Santos Townsend;Healthy;01/10/2020 05:06
379;Cortez Montes;Sick;05/10/2020 06:59
380;Melissa Kelly;Healthy;24/09/2020 12:16
381;Deegan Alvarez;Healthy;01/10/2020 03:28
382;Andy Gay;Sick;03/10/2020 22:16
383;Emiliano Adkins;Healthy;02/10/2020 22:42
384;Andreas Bass;Healthy;26/09/2020 15:42
385;Tristian Cherry;Sick;28/09/2020 10:35
386;Jamarcus Hurley;Healthy;03/10/2020 10:35
387;Madyson Glenn;Healthy;23/09/2020 09:17
388;Tabitha Swanson;Sick;09/10/2020 16:22
389;Madison Kerr;Sick;24/09/2020 10:46
390;Jocelyn Taylor;Healthy;23/09/2020 07:06
391;Danika Carroll;Sick;18/09/2020 17:40
392;Elian Pineda;Healthy;26/09/2020 04:45
393;Aden Ray;Healthy;20/09/2020 03:55
394;Chad Calhoun;Sick;29/09/2020 06:59
395;Krish Wolf;Sick;02/10/2020 05:55
396;Micheal Hays;Healthy;11/10/2020 22:53
397;Marie Huff;Healthy;29/09/2020 19:57
398;Jay Vargas;Sick;25/09/2020 06:17
399;Simon Brown;Healthy;16/09/2020 16:51
400;Layton Mccarthy;Healthy;08/10/2020 01:39
401;Reynaldo Duarte;Sick;18/09/2020 13:43
402;Natalee Mcdaniel;Sick;02/10/2020 16:20
403;Libby Davidson;Sick;27/09/2020 00:20
404;Riley Stanton;Sick;02/10/2020 14:16
405;Gunner Ryan;Sick;20/09/2020 18:27
406;Efrain Fleming;Sick;03/10/2020 18:14
407;Ralph Walsh;Sick;13/09/2020 18:51
408;Alison Herrera;Healthy;13/09/2020 14:37
409;Danny Jarvis;Healthy;29/09/2020 18:18
410;Marcus Gallagher;Healthy;15/09/2020 02:31
411;Regina Aguilar;Healthy;23/09/2020 04:54
412;Kane Hogan;Sick;14/09/2020 00:53
413;Reynaldo Irwin;Healthy;15/09/2020 08:38
414;Justin Schroeder;Sick;19/09/2020 13:24
415;Eileen Rodgers;Healthy;23/09/2020 15:22
416;Frank Buck;Healthy;05/10/2020 00:30
417;Tiffany Booker;Healthy;05/10/2020 20:22
418;Bobby French;Healthy;17/09/2020 09:41
419;Declan Goodman;Healthy;24/09/2020 11:18
420;Mason Ferguson;Healthy;17/09/2020 15:42
421;Jasmin Abbott;Healthy;20/09/2020 07:45
422;Kaila Stanley;Healthy;10/10/2020 11:01
423;Kamren Donaldson;Sick;27/09/2020 07:39
424;Caden Duffy;Healthy;04/10/2020 13:31
425;Serenity Mora;Sick;04/10/2020 04:11
426;Ashley Mcdaniel;Sick;08/10/2020 21:45
427;Ivy Downs;Sick;11/10/2020 03:52
428;Paula Ramos;Healthy;14/09/2020 16:31
429;Samir Guerrero;Healthy;25/09/2020 00:08
430;Stella Alvarez;Healthy;30/09/2020 02:27
431;Carlo Bryan;Healthy;09/10/2020 02:14
432;Trevon Deleon;Healthy;22/09/2020 16:32
433;Amiya Bright;Healthy;08/10/2020 19:21
434;Lily Hale;Healthy;22/09/2020 15:19
435;Judah Mcdonald;Healthy;06/10/2020 21:09
436;Kellen Tyler;Healthy;03/10/2020 21:16
437;Kaleigh Drake;Sick;05/10/2020 15:49
438;Mekhi Odonnell;Sick;09/10/2020 00:31
439;Bruno Mendez;Sick;16/09/2020 19:01
440;Aliza Freeman;Sick;29/09/2020 14:35
441;Bianca Hale;Healthy;23/09/2020 06:45
442;Heaven Lewis;Healthy;16/09/2020 14:53
443;Kristina Shepard;Sick;07/10/2020 06:15
444;Rudy Cooley;Healthy;20/09/2020 19:06
445;Caden Villa;Sick;10/10/2020 14:46
446;Yosef Higgins;Sick;24/09/2020 15:58
447;Alonzo Ramirez;Sick;07/10/2020 03:47
448;Serenity Jacobs;Sick;19/09/2020 09:34
449;Roselyn Mckay;Sick;30/09/2020 01:44
450;Adalynn Fleming;Healthy;09/10/2020 04:00
451;Helena Leach;Healthy;28/09/2020 14:01
452;Gillian Castro;Healthy;25/09/2020 01:43
453;Tyrell Velazquez;Healthy;22/09/2020 17:15
454;Quentin Gardner;Sick;13/09/2020 03:40
455;Zechariah Garner;Sick;15/09/2020 09:22
456;Shiloh Adkins;Sick;07/10/2020 15:18
457;King Maddox;Healthy;22/09/2020 10:19
458;Avah Bailey;Sick;08/10/2020 11:22
459;Nick Frost;Healthy;30/09/2020 02:20
460;Annika Bullock;Sick;30/09/2020 21:36
461;Angelique Turner;Healthy;17/09/2020 19:59
462;Vaughn Huffman;Healthy;01/10/2020 03:38
463;Jayvon Bernard;Sick;17/09/2020 16:22
464;Camryn Sanders;Healthy;18/09/2020 07:46
465;Genevieve Cannon;Sick;25/09/2020 14:56
466;Gianni Garcia;Healthy;10/10/2020 20:35
467;Christian Day;Sick;28/09/2020 00:01
468;Keshawn Beasley;Sick;06/10/2020 22:04
469;Coby Conrad;Sick;08/10/2020 11:40
470;Delilah Trevino;Healthy;25/09/2020 12:03
471;Lucian Mcpherson;Healthy;20/09/2020 08:30
472;Monique Conner;Healthy;20/09/2020 06:58
473;Daniella Benson;Sick;07/10/2020 13:52
474;Ayden Hodges;Sick;20/09/2020 11:11
475;Demarion Rush;Healthy;19/09/2020 22:47
476;Winston Hartman;Sick;20/09/2020 11:28
477;Yaretzi Schultz;Healthy;16/09/2020 22:36
478;Justice Sloan;Healthy;14/09/2020 14:39
479;Brady Chen;Healthy;24/09/2020 03:00
480;Taryn Carter;Sick;12/10/2020 20:12
481;Randy Hogan;Healthy;25/09/2020 23:06
482;Kelvin Hutchinson;Sick;01/10/2020 06:34
483;Mario Palmer;Healthy;09/10/2020 04:50
484;Skyla Hardin;Healthy;13/09/2020 18:19
485;Ariana Wells;Sick;19/09/2020 03:19
486;Beckett Small;Sick;08/10/2020 08:57
487;Dominique Douglas;Sick;09/10/2020 19:00
488;Dayton Baird;Healthy;22/09/2020 18:50
489;Alberto Landry;Sick;09/10/2020 01:01
490;Sean Barrera;Healthy;11/10/2020 05:17
491;Reilly Sanford;Sick;21/09/2020 13:55
492;Jadon Rivers;Healthy;15/09/2020 17:20
493;Avery Boyle;Sick;14/09/2020 13:50
494;Giovani Meza;Healthy;29/09/2020 20:06
495;Kristopher Cabrera;Healthy;06/10/2020 17:02
496;Bailey Johnston;Healthy;21/09/2020 23:35
497;Beatrice Dickerson;Healthy;27/09/2020 22:44
498;Tyshawn Ayala;Sick;01/10/2020 16:43
499;Thalia Montes;Healthy;20/09/2020 14:43
500;Carmen Cowan;Sick;21/09/2020 18:49
501;Rik Van Bruggen;Healthy;18/09/2020 01:01
